﻿capital = 284
oob = "NZL_1936"
# Starting tech
set_stability = 0.8
set_war_support = 0.15
add_ideas = reliance_on_natural_rubber

set_variable = {
    var = min_fuel
    value = 0.800
}
add_ideas = peace_training
set_rule = {can_be_spymaster = no}
set_technology = {
	infantry_weapons = 1
	infantry_weapons1 = 1
	gwtank = 1
	gw_artillery = 1
	tech_support = 1		
	tech_engineers = 1
	tech_recon = 1
	early_fighter = 1
	naval_bomber1 = 1
	trench_warfare = 1
	fleet_in_being = 1
	motorised_infantry = 1
	marines = 1
}
if = {
	limit = { not = { has_dlc = "Man the Guns" } }
	set_technology = {
		early_destroyer = 1
		early_light_cruiser = 1
		transport = 1
	}
}
if = {
	limit = { has_dlc = "Man the Guns" }
	set_technology = {
		early_ship_hull_light = 1
		early_ship_hull_cruiser = 1
		basic_battery = 1
		basic_torpedo = 1
		basic_depth_charges = 1
		mtg_transport = 1
	}
}

if = {
	limit = { has_dlc = "Together for Victory" }
	add_ideas = SAF_the_commonwealth
	add_to_tech_sharing_group = commonwealth_research
	
}

set_politics = {
	ruling_party = democratic
	last_election = "1935.11.27"
	election_frequency = 36
	elections_allowed = yes
}
set_popularities = {
	democratic = 100
}
create_country_leader = {
	name = "Michael Joseph Savage"
	desc = "POLITICS_MICHAEL_JOSEPH_SAVAGE_DESC"
	picture = "GFX_NZL_michael_joseph_savage"
	expire = "1965.1.1"
	ideology = socialism
	traits = {
		#
	}
}

create_country_leader = {
	name = "Sidney Holland"
	desc = "POLITICS_SIDNEY_HOLLAND_DESC"
	picture = "GFX_NZL_sidney_holland"
	expire = "1965.1.1"
	ideology = centrism
	traits = {
		#
	}
}

create_country_leader = {
	name = "John Ormond"
	desc = "POLITICS_JOHN_ORMOND_DESC"
	picture = "GFX_NZL_john_ormond"
	expire = "1965.1.1"
	ideology = fascism_ideology
	traits = {
		#
	}
}

create_country_leader = {
	name = "Elsie Farrelly"
	desc = "POLITICS_JOHN_ORMOND_DESC"
	picture = "GFX_NZL_elsie_farrelly"
	expire = "1965.1.1"
	ideology = marxism
	female = yes
	traits = {
		#
	}
}
set_research_slots = 3
set_convoys = 250
add_equipment_to_stockpile = {
         type = artillery_equipment_1
         amount = 200
         producer = NZL
}
add_equipment_to_stockpile = {
         type = infantry_equipment_1
         amount = 5000
         producer = NZL
}

add_equipment_to_stockpile = {
         type = motorized_equipment_1
         amount = 200
         producer = NZL
}
add_equipment_to_stockpile = {
         type = support_equipment_1
         amount = 300
         producer = NZL
}

create_corps_commander = {
	name = "Bernard Freyberg"
	gfx = "GFX_NZL_bernard_freyberg"
	traits = { infantry_leader panzer_leader }
	skill = 4
	attack_skill = 4
	defense_skill = 2
	planning_skill = 2
	logistics_skill = 3
}

create_corps_commander = {
	name = "Robert Row"
	gfx = "GFX_NZL_robert_row"
	traits = { naval_invader infantry_leader }
	skill = 4
	attack_skill = 4
	defense_skill = 3
	planning_skill = 2
	logistics_skill = 3
}

create_corps_commander = {
	name = "William Stevens"
	gfx = "GFX_NZL_william_stevens"
	traits = { panzer_leader jungle_rat trait_engineer}
	skill = 4
	attack_skill = 5
	defense_skill = 4
	planning_skill = 3
	logistics_skill = 4
}

create_corps_commander = {
	name = "Dan the Man"
	portrait_path = "gfx/leaders/Europe/Portrait_Europe_Generic_land_2.dds"
	traits = { trait_mountaineer infantry_leader }
	skill = 7
	attack_skill = 5
	defense_skill = 2
	planning_skill = 6
	logistics_skill = 2
}

create_navy_leader = {
	name = "Edmund Rupert Drummond"
	gfx = "GFX_NZL_edmund_drummond"
	traits = { spotter blockade_runner }
	skill = 5
	attack_skill = 5
	defense_skill = 1
	maneuvering_skill = 9
	coordination_skill = 6
}

create_navy_leader = {
	name = "Peter Phipps"
	gfx = "GFX_NZL_peter_phipps"
	traits = { }
	skill = 3
	attack_skill = 2
	defense_skill = 3
	maneuvering_skill = 2
	coordination_skill = 3
}


### VARIANTS ###
# 1936 Start #
if = {
	limit = { not = { has_dlc = "Man the Guns" } }
	### Ship Variants ###
	create_equipment_variant = {
		name = "Leander Class"
		type = light_cruiser_1
		upgrades = {
			ship_reliability_upgrade = 2
			ship_engine_upgrade = 2
			ship_gun_upgrade = 2
			ship_anti_air_upgrade = 2
		}
	}
}
if = {
	limit = { has_dlc = "Man the Guns" }
	# Light Cruisers #
	create_equipment_variant = {
		name = "Danae Class"
		type = ship_hull_cruiser_1
		name_group = NZL_CL_HISTORICAL
		parent_version = 0
		modules = {
			fixed_ship_battery_slot = ship_light_medium_battery_1
			fixed_ship_anti_air_slot = ship_anti_air_1
			fixed_ship_fire_control_system_slot = ship_fire_control_system_0
			fixed_ship_radar_slot = empty
			fixed_ship_engine_slot = cruiser_ship_engine_1
			mid_1_custom_slot = ship_torpedo_1
			mid_2_custom_slot = ship_torpedo_1
			rear_1_custom_slot = empty
		}
	}
}