autonomy_state = {
	id = autonomy_reichsprotectorate
	
	default = yes
	is_puppet = yes
	
	min_freedom_level = 0.5
	
	manpower_influence = 0.7
	
	rule = {
		can_not_declare_war = yes
		can_decline_call_to_war = no
		can_be_spymaster = no
		contributes_operatives = no
		can_create_collaboration_government = no
	}
	
	modifier = {
		autonomy_manpower_share = 1
		can_master_build_for_us = 1
		conscription_factor = -0.25
		extra_trade_to_overlord_factor = 0.6
		overlord_trade_cost_factor = -0.6
		cic_to_overlord_factor = 0.25
		license_subject_master_purchase_cost = -1
		autonomy_gain_global_factor = -0.3
	}
	
	ai_subject_wants_higher = {
		factor = 1.0
	}
	
	ai_overlord_wants_lower = {
		factor = 1.0
	}

	ai_overlord_wants_garrison = {
		always = no
	}

	allowed = {
		has_dlc = "Death or Dishonor"
		has_government = fascism
		if = {
			limit = { has_dlc = "Waking the Tiger" }
			NOT = { OVERLORD = { original_tag = JAP } }
			NOT = { OVERLORD = { original_tag = MAN } }
		}
	}

	can_take_level = {
		#trigger here
	}

	can_lose_level = {
		#trigger here
	}
}