# Written by Henrik "Groogy" Hansson
# Modified by Daniel "Da9L" Sjöberg

# befriend
# conquer
# antagonize
# build_ship
# build_army
# unit_ratio
# build_building
# research_tech
# garrison
# protect
# influence
# contain
# area_priority

default_unit_production = {
	enable = {
	}
	
	ai_strategy = {
		type = role_ratio
		id = paratroopers
		value = 0
	}

	ai_strategy = {
		type = role_ratio
		id = mountaineers
		value = 4
	}

	ai_strategy = {
		type = role_ratio
		id = marines
		value = 0
	}

	ai_strategy = {
		type = role_ratio
		id = armor
		value = 2
	}

	ai_strategy = {
		type = role_ratio
		id = infantry
		value = 80
	}
	
	#Air unit factors
	ai_strategy = {
		type = unit_ratio
		id = fighter
		value = 80
	}
	
	ai_strategy = {
		type = unit_ratio
		id = cas
		value = 5
	}
	
	ai_strategy = {
		type = unit_ratio
		id = tactical_bomber
		value = 5
	}
	
	ai_strategy = {
		type = unit_ratio
		id = strategic_bomber
		value = 5
	}
	
	ai_strategy = {
		type = unit_ratio
		id = naval_bomber
		value = 5
	}
	
	
	# Naval unit factors
	ai_strategy = {
		type = unit_ratio
		id = capital_ship
		value = 10
	}

	ai_strategy = {
		type = unit_ratio
		id = submarine
		value = 10
	}

	ai_strategy = {
		type = unit_ratio
		id = screen_ship
		value = 40
	}

	ai_strategy = {
		type = unit_ratio
		id = convoy
		value = 15
	}
	
	ai_strategy = {
		type = equipment_production_factor
		id = fighter
		value = 35
	}
	
	ai_strategy = {
		type = equipment_production_factor
		id = infantry
		value = 40
	}
	
	ai_strategy = {
		type = equipment_production_factor
		id = artillery
		value = 25
	}
}
default_pp_spend_amount = {
	enable = {
		always = yes
	}
	
	ai_strategy = {
		type = pp_spend_amount
		id = idea
		value = 100
	}
	
	ai_strategy = {
		type = pp_spend_amount
		id = decision
		value = 100
	}
}
default_garrison_production = {
	enable = {
		ai_wants_divisions >  12 #Massively decreasing the amount of garrison and suppression the AI wants
	}
	abort = {
		ai_wants_divisions < 13 #Massively decreasing the amount of garrison and suppression the AI wants
	}

	ai_strategy = {
		type = role_ratio
		id = garrison
		value = 5
	}
	
	ai_strategy = {
		type = role_ratio
		id = suppression
		value = 2
	}
}
default_area_priority = {
	enable = {
	}

	ai_strategy = {
		type = area_priority
		id = europe
		value = 100
	}

	ai_strategy = {
		type = area_priority
		id = scandinavia
		value = 100
	}
	
	ai_strategy = {
		type = area_priority
		id = north_america
		value = 100
	}
	
	ai_strategy = {
		type = area_priority
		id = south_america
		value = 50
	}
	
	ai_strategy = {
		type = area_priority
		id = asia
		value = 75
	}
	
	ai_strategy = {
		type = area_priority
		id = middle_east
		value = 50
	}

	ai_strategy = {
		type = area_priority
		id = suez
		value = 50
	}
	
	ai_strategy = {
		type = area_priority
		id = pacific
		value = 300
	}
	
	ai_strategy = {
		type = area_priority
		id = oceania
		value = 80
	}

}

default_area_priority_non_africa = {
    enable = {
        NOT = { capital_scope = { is_on_continent = africa } }
    }

    ai_strategy = {
        type = area_priority
        id = africa
        value = -90
    }
    ai_strategy = {
        type = area_priority
        id = suez
        value = -90
    }
}

DEFAULT_template_design = {
	enable = {
		date < 1940.1.1				
	}
	abort = { 
		date > 1940.1.1
	}

	ai_strategy = {
		type = template_prio
		id = motorized
		value = 10
	}

	ai_strategy = {
		type = template_prio
		id = cavalry
		value = -100
	}
	
	ai_strategy = {
		type = template_prio
		id = light_armor
		value = 50
	}

	ai_strategy = {
		type = template_prio
		id = medium_armor
		value = -10
	}

	ai_strategy = {
		type = template_prio
		id = heavy_armor
		value = -50
	}

	ai_strategy = {
		type = template_prio
		id = paratroopers
		value = -50
	}
	
	ai_strategy = {
		type = template_prio
		id = infantry
		value = 60
	}
}

DEFAULT_template_design = {
	enable = {
		date > 1940.1.1				
	}

	ai_strategy = {
		type = template_prio
		id = mechanized
		value = 10
	}

	ai_strategy = {
		type = template_prio
		id = cavalry
		value = -100
	}
	
	ai_strategy = {
		type = template_prio
		id = light_armor
		value = 10
	}

	ai_strategy = {
		type = template_prio
		id = medium_armor
		value = 20
	}
	
	ai_strategy = {
		type = template_prio
		id = modern_armor
		value = 50
	}

	ai_strategy = {
		type = template_prio
		id = heavy_armor
		value = 10
	}

	ai_strategy = {
		type = template_prio
		id = paratroopers
		value = -50
	}
	
	ai_strategy = {
		type = template_prio
		id = infantry
		value = 10
	}
}
do_not_waste_pp_if_saving_for_manpower_laws = {

	enable = {
		manpower_per_military_factory < 500
		has_war = yes
	}
	abort = {
		OR = {
			manpower_per_military_factory > 500
			has_war = no
		}
	}

	ai_strategy = {
		type = pp_spend_priority
		id = relation
		value = -9999
	}

	ai_strategy = {
		type = pp_spend_priority
		id = guarantee
		value = -9999
	}
}