strategic_region={
	id=119
	name="STRATEGICREGION_119"
	provinces={
		805 1500 1618 1806 1915 1927 1954 1972 1998 2019 2042 2043 2055 2082 2102 3867 3875 3883 3960 3972 4577 4884 4919 4955 4975 5001 5022 5038 5044 5061 5085 5103 6785 6798 6803 6968 6987 7628 7762 7836 7904 7945 7981 8025 8064 8070 9773 9822 9829 9908 9920 10337 10504 10642 10645 10702 10740 10778 10798 10861 10867 10894 10914 11743 11802 12301 12341 12369 12410 12486 12552 12624 12684 12720 12728 12782 12791 12848 12875 12893 
	}
}
