strategic_region={
	id=123
	name="STRATEGICREGION_123"
	provinces={
		1952 1965 2008 2011 2051 2083 4887 4956 5015 5021 5052 5066 7913 8032 8079 8089 10172 10730 10732 10832 12721 12746 12755 12810 12873 13088 13089 
	}
}
