strategic_region={
	id=143
	name="STRATEGICREGION_143"
	provinces={
		814 828 881 900 934 952 972 1027 1034 1052 1069 1084 1104 1124 1134 1137 1154 1169 1180 1184 1188 1200 1203 1438 1489 1519 1531 1551 1575 1590 1608 1796 1811 1871 3814 3828 3830 3881 3900 3934 3955 4032 4037 4058 4071 4074 4089 4093 4137 4140 4157 4174 4181 4186 4190 4205 4208 4222 4469 4495 4514 4538 4555 4612 4634 6828 6837 6852 6898 6904 6937 6969 6988 7000 7055 7089 7092 7105 7109 7160 7189 7545 7571 7575 7578 7633 7648 7674 9768 9776 9843 9873 9905 9927 9969 9971 9987 10000 10003 10018 10022 10043 10053 10068 10072 10102 10119 10331 10363 10367 10372 10397 10421 10426 10480 10499 10507 11752 11761 11801 11822 11855 11886 11933 11944 11962 11980 11996 12015 12026 12043 12045 12062 12069 12074 12078 12093 12300 12344 12348 12432 12448 12554 
	}
	
}
