strategic_region={
	id=150
	name="STRATEGICREGION_150"
	provinces={
		3 6 18 23 26 60 72 75 81 84 87 89 99 105 106 108 127 129 135 138 140 143 154 160 163 166 174 180 183 186 196 198 312 1295 1307 2996 3000 3031 3056 3057 3064 3065 3075 3079 3080 3081 3086 3087 3091 3092 3099 3124 3130 3135 3147 3154 3155 3157 3160 3164 3166 3168 3175 3338 4298 4874 6016 6017 6034 6040 6051 6073 6075 6077 6088 6091 6097 6100 6102 6105 6109 6112 6113 6119 6121 6158 6166 6177 6180 6182 6189 6190 6192 6193 6199 6202 6538 7318 7330 7712 7824 7898 9041 9043 9099 9101 9102 9110 9113 9121 9124 9130 9131 9133 9136 9145 9168 9187 9199 9200 9202 9205 9207 9210 9213 9222 9225 9230 9248 10207 10216 10551 10579 10677 10723 11027 11035 11036 11038 11042 11047 11061 11062 11071 11074 11075 11086 11089 11095 11098 11103 11107 11119 11137 11143 11168 11171 11177 11178 11179 11180 11182 11189 11200 11203 11213 12393 12502 12530 12558 12659 13076 
	}
	weather={
		period={
			between={ 0.0 30.0 }
			temperature={ -25.0 -10.0 }
			temperature_day_night={ 5.0 -5.0 }
			no_phenomenon=0.100
			rain_light=0.100
			rain_heavy=0.050
			snow=0.440
			blizzard=0.140
			arctic_water=0.000
			mud=0.1
			sandstorm=0.000
			min_snow_level=0.100
		}
		period={
			between={ 0.1 27.1 }
			temperature={ -25.0 -5.0 }
			temperature_day_night={ 0.0 -5.0 }
			no_phenomenon=0.100
			rain_light=0.100
			rain_heavy=0.050
			snow=0.500
			blizzard=0.220
			arctic_water=0.000
			mud=0.1
			sandstorm=0.000
			min_snow_level=0.100
		}
		period={
			between={ 0.2 30.2 }
			temperature={ -10.0 5.0 }
			temperature_day_night={ 0.0 -5.0 }
			no_phenomenon=0.550
			rain_light=0.100
			rain_heavy=0.050
			snow=0.300
			blizzard=0.100
			arctic_water=0.000
			mud=0.2
			sandstorm=0.000
			min_snow_level=0.000
		}
		period={
			between={ 0.3 29.3 }
			temperature={ 0.0 16.0 }
			temperature_day_night={ 7.0 -7.0 }
			no_phenomenon=0.600
			rain_light=0.200
			rain_heavy=0.100
			snow=0.150
			blizzard=0.000
			arctic_water=0.000
			mud=0.2
			sandstorm=0.000
			min_snow_level=0.000
		}
		period={
			between={ 0.4 30.4 }
			temperature={ 7.0 19.0 }
			temperature_day_night={ 6.0 -6.0 }
			no_phenomenon=0.600
			rain_light=0.200
			rain_heavy=0.100
			snow=0.000
			blizzard=0.000
			arctic_water=0.000
			mud=0.3
			sandstorm=0.000
			min_snow_level=0.000
		}
		period={
			between={ 0.5 29.5 }
			temperature={ 11.0 22.0 }
			temperature_day_night={ 8.0 -8.0 }
			no_phenomenon=0.600
			rain_light=0.250
			rain_heavy=0.150
			snow=0.000
			blizzard=0.000
			arctic_water=0.000
			mud=0.2
			sandstorm=0.000
			min_snow_level=0.000
		}
		period={
			between={ 0.6 30.6 }
			temperature={ 13.0 24.0 }
			temperature_day_night={ 8.0 -8.0 }
			no_phenomenon=0.700
			rain_light=0.250
			rain_heavy=0.150
			snow=0.000
			blizzard=0.000
			arctic_water=0.000
			mud=0.2
			sandstorm=0.000
			min_snow_level=0.000
		}
		period={
			between={ 0.7 30.7 }
			temperature={ 12.0 23.0 }
			temperature_day_night={ 8.0 -8.0 }
			no_phenomenon=0.800
			rain_light=0.250
			rain_heavy=0.150
			snow=0.000
			blizzard=0.000
			arctic_water=0.000
			mud=0.3
			sandstorm=0.000
			min_snow_level=0.000
		}
		period={
			between={ 0.8 29.8 }
			temperature={ 7.0 17.0 }
			temperature_day_night={ 8.0 -8.0 }
			no_phenomenon=0.100
			rain_light=0.550
			rain_heavy=0.450
			snow=0.000
			blizzard=0.000
			arctic_water=0.000
			mud=0.2
			sandstorm=0.000
			min_snow_level=0.000
		}
		period={
			between={ 0.9 30.9 }
			temperature={ -5.0 10.0 }
			temperature_day_night={ 8.0 -8.0 }
			no_phenomenon=0.100
			rain_light=0.600
			rain_heavy=0.500
			snow=0.150
			blizzard=0.000
			arctic_water=0.000
			mud=0.2
			sandstorm=0.000
			min_snow_level=0.000
		}
		period={
			between={ 0.10 14.10 }
			temperature={ -10.0 5.0 }
			temperature_day_night={ 0.0 -5.0 }
			no_phenomenon=0.600
			rain_light=0.150
			rain_heavy=0.100
			snow=0.200
			blizzard=0.000
			arctic_water=0.000
			mud=0.2
			sandstorm=0.000
			min_snow_level=0.000
		}
		period={
			between={ 15.10 29.10 }
			temperature={ -10.0 0.0 }
			temperature_day_night={ 0.0 -5.0 }
			no_phenomenon=0.100
			rain_light=0.100
			rain_heavy=0.150
			snow=0.400
			blizzard=0.200
			arctic_water=0.000
			mud=0.2
			sandstorm=0.000
			min_snow_level=0.100
		}
		period={
			between={ 0.11 30.11 }
			temperature={ -15.0 -5.0 }
			temperature_day_night={ 0.0 -5.0 }
			no_phenomenon=0.100
			rain_light=0.130
			rain_heavy=0.070
			snow=0.600
			blizzard=0.200
			arctic_water=0.000
			mud=0.2
			sandstorm=0.000
			min_snow_level=0.200
		}
}
