strategic_region={
	id=197
	name="STRATEGICREGION_197"
	provinces={
		598 634 706 715 718 733 734 859 905 908 1282 1284 1338 1354 1424 1436 1619 3602 3702 3710 3712 3715 3732 3733 3747 3806 3878 3894 3906 4285 4287 4305 4342 4345 4360 4362 4417 4422 4430 4432 4445 4623 6707 6717 6719 6732 6778 6795 6909 6911 6916 7289 7291 7304 7345 7361 7379 7433 7462 7629 7644 9601 9664 9673 9675 9693 9708 9721 9754 9774 9832 9847 9850 10174 10230 10244 10247 10318 10320 10381 10481 11650 11654 11660 11662 11665 11680 11722 11830 12149 12202 12221 12289 12291 12459 13157 13158 
	}
}
