strategic_region={
	id=116
	name="STRATEGICREGION_116"
	provinces={
		829 1521 1636 1822 1888 1889 1896 1922 1957 1963 1982 1986 2000 2026 2039 2065 2070 2071 4553 4580 4609 4637 4755 4825 4891 4901 4928 4943 4959 4966 4983 5005 5029 5050 5067 5073 5089 5098 7573 7602 7604 7953 7969 7982 7990 8009 8031 8040 8074 8093 8117 8125 9816 10351 10385 10454 10523 10759 10768 10774 10782 10797 10806 10828 10837 10873 10881 10890 10913 10922 11249 11671 12704 12739 12748 12756 12773 12780 12793 12809 12818 12832 12852 12861 12863 12895 13082 13120 
	}
}
