strategic_region={
	id=146
	name="STRATEGICREGION_146"
	provinces={
		1910 1961 1991 2010 2014 2041 2084 2093 2098 4386 4900 4987 4994 5011 5033 5042 5094 5310 7273 7316 7374 7926 8005 8029 8068 8121 10755 10802 10821 10825 10905 10910 10918 12754 12784 12801 12807 12884 12892 
	}
}
