strategic_region={
	id=204
	name="STRATEGICREGION_204"
	provinces={
		1892 1904 1945 2037 2060 2069 2104 4898 4908 4946 4977 5071 7921 7935 7964 7973 8003 8012 8033 8057 8097 8119 10738 10746 10765 10769 10800 10809 10830 10848 10853 10871 10895 10916 12461 12736 12745 12804 12811 12827 12833 12835 12850 12859 12897 13214 13215 13216 
	}
}
