strategic_region={
	id=26
	name="STRATEGICREGION_26"
	provinces={
		637 649 657 660 674 687 723 744 793 818 878 893 935 949 965 3076 3630 3636 3639 3645 3663 3728 3741 3796 3819 3908 3937 3952 3971 6584 6652 6658 6667 6677 6695 6706 6729 6747 6761 6814 6842 6857 6923 6952 6967 6982 9610 9612 9614 9617 9635 9651 9701 9716 9769 9771 9783 9818 9862 9888 9902 9919 11534 11588 11597 11603 11605 11619 11636 11652 11655 11657 11672 11689 11754 11813
		577 9548 3701 3704 6727 6743 414 565 3407 3577 3707 3724 6600 9683 11686 11705	 
	}
	weather={
		period={
			between={ 0.0 30.0 }
			temperature={ -4.0 4.0 }
			temperature_day_night={ 9.0 -9.0 }
			no_phenomenon=0.600
			rain_light=0.150
			rain_heavy=0.050
			snow=0.160
			blizzard=0.040
			arctic_water=0.000
			mud=1.000
			sandstorm=0.000
			min_snow_level=0.000
		}
		period={
			between={ 0.1 27.1 }
			temperature={ -2.0 8.0 }
			temperature_day_night={ 9.0 -9.0 }
			no_phenomenon=0.600
			rain_light=0.150
			rain_heavy=0.050
			snow=0.160
			blizzard=0.040
			arctic_water=0.000
			mud=1.000
			sandstorm=0.000
			min_snow_level=0.000
		}
		period={
			between={ 0.2 30.2 }
			temperature={ 2.0 13.0 }
			temperature_day_night={ 8.0 -8.0 }
			no_phenomenon=0.600
			rain_light=0.200
			rain_heavy=0.100
			snow=0.100
			blizzard=0.000
			arctic_water=0.000
			mud=1.000
			sandstorm=0.000
			min_snow_level=0.000
		}
		period={
			between={ 0.3 29.3 }
			temperature={ 6.0 18.0 }
			temperature_day_night={ 13.0 -13.0 }
			no_phenomenon=0.550
			rain_light=0.300
			rain_heavy=0.100
			snow=0.050
			blizzard=0.000
			arctic_water=0.000
			mud=1.000
			sandstorm=0.000
			min_snow_level=0.000
		}
		period={
			between={ 0.4 30.4 }
			temperature={ 12.0 23.0 }
			temperature_day_night={ 13.0 -13.0 }
			no_phenomenon=0.500
			rain_light=0.350
			rain_heavy=0.150
			snow=0.000
			blizzard=0.000
			arctic_water=0.000
			mud=1.000
			sandstorm=0.000
			min_snow_level=0.000
		}
		period={
			between={ 0.5 29.5 }
			temperature={ 14.0 28.0 }
			temperature_day_night={ 15.0 -15.0 }
			no_phenomenon=0.650
			rain_light=0.250
			rain_heavy=0.100
			snow=0.000
			blizzard=0.000
			arctic_water=0.000
			mud=1.000
			sandstorm=0.000
			min_snow_level=0.000
		}
		period={
			between={ 0.6 30.6 }
			temperature={ 17.0 32.0 }
			temperature_day_night={ 15.0 -15.0 }
			no_phenomenon=0.700
			rain_light=0.200
			rain_heavy=0.100
			snow=0.000
			blizzard=0.000
			arctic_water=0.000
			mud=1.000
			sandstorm=0.000
			min_snow_level=0.000
		}
		period={
			between={ 0.7 30.7 }
			temperature={ 18.0 32.0 }
			temperature_day_night={ 15.0 -15.0 }
			no_phenomenon=0.750
			rain_light=0.200
			rain_heavy=0.050
			snow=0.000
			blizzard=0.000
			arctic_water=0.000
			mud=1.000
			sandstorm=0.000
			min_snow_level=0.000
		}
		period={
			between={ 0.8 29.8 }
			temperature={ 12.0 27.0 }
			temperature_day_night={ 13.0 -13.0 }
			no_phenomenon=0.700
			rain_light=0.200
			rain_heavy=0.100
			snow=0.000
			blizzard=0.000
			arctic_water=0.000
			mud=1.000
			sandstorm=0.000
			min_snow_level=0.000
		}
		period={
			between={ 0.9 30.9 }
			temperature={ 8.0 20.0 }
			temperature_day_night={ 10.0 -10.0 }
			no_phenomenon=0.650
			rain_light=0.250
			rain_heavy=0.100
			snow=0.000
			blizzard=0.000
			arctic_water=0.000
			mud=1.000
			sandstorm=0.000
			min_snow_level=0.000
		}
		period={
			between={ 0.10 29.10 }
			temperature={ 3.0 11.0 }
			temperature_day_night={ 8.0 -8.0 }
			no_phenomenon=0.600
			rain_light=0.150
			rain_heavy=0.500
			snow=0.170
			blizzard=0.030
			arctic_water=0.000
			mud=1.000
			sandstorm=0.000
			min_snow_level=0.000
		}
		period={
			between={ 0.11 30.11 }
			temperature={ -2.0 5.0 }
			temperature_day_night={ 7.0 -7.0 }
			no_phenomenon=0.550
			rain_light=0.150
			rain_heavy=0.500
			snow=0.220
			blizzard=0.030
			arctic_water=0.000
			mud=1.000
			sandstorm=0.000
			min_snow_level=0.000
		}
		period={
			between={ 4.11 21.11 }
			temperature={ -10.0 35.0 }
			temperature_day_night={ 2.0 -2.0 }
			no_phenomenon=1.500
			rain_light=0.250
			rain_heavy=0.100
			snow=0.000
			blizzard=0.000
			arctic_water=0.000
			mud=0.000
			sandstorm=0.000
			min_snow_level=0.000
		}
	}
}
