#Adjacency rules are special rules for adjacencies
#If smbd who is at war fights over canal/strait it is considered closed
#Enemy status is considered if any of sides controlling the chanel is at war with country
#Friend status is considered non of sides controlling the chanel is at war with country and one of controllers is ally of giving military access
#Every one else is considered as neutral according to canal/strait
#Military access considered as being friend
#Rules needs linking from the straits that are affected by the rule ( adjacency_rule_id )

#Name is how you refer to the rule in adjecencies.csv
Spain Strait
adjacency_rule
{
	name = "Berlin-Madrid"

	contested =
	{
		army = no
		navy = no
		submarine = yes
		trade = no
	}
	enemy =
	{
		army = no
		navy = no
		submarine = yes
		trade = no
	}
	friend =
	{
		army = yes
		navy = yes
		submarine = yes
		trade = yes
	}
	neutral =
	{
		army = yes
		navy = yes
		submarine = yes
		trade = yes
	}
	
	required_provinces = { 3938 }
	is_disabled = {
		NOT = {
			tag=SPR
		
		}
		
	}
}
Spain Strait2
adjacency_rule
{
	name = "Vienna-Madrid"

	contested =
	{
		army = no
		navy = no
		submarine = yes
		trade = no
	}
	enemy =
	{
		army = no
		navy = no
		submarine = yes
		trade = no
	}
	friend =
	{
		army = yes
		navy = yes
		submarine = yes
		trade = yes
	}
	neutral =
	{
		army = yes
		navy = yes
		submarine = yes
		trade = yes
	}
	
	required_provinces = { 3938 }
	is_disabled = {
		NOT = {
			tag=SPR
		
		}
		
	}
}
#Suez Canal
adjacency_rule
{
	name = "SUEZ_CANAL"

	contested =
	{
		army = no
		navy = no
		submarine = no
		trade = no
	}
	enemy =
	{
		army = no
		navy = no
		submarine = no
		trade = no
	}
	friend =
	{
		army = yes
		navy = yes
		submarine = yes
		trade = yes
	}
	neutral =
	{
		army = yes
		navy = no
		submarine = no
		trade = yes
	}
	
	required_provinces = { 12049 1155 4073 9947 }

	is_disabled = {
		OR = {
			has_global_flag = SUEZ_CANAL_BLOCKED
			has_country_flag = SUEZ_CANAL_BLOCKED_FOR_COUNTRY
			AND = {
				tag = USA
				SOV = {has_war = no}
			}
		}
		tooltip = disable_canal_tt
	}
		
	icon = 12049
	offset = { 1 0 -6 }
}
#GULF OF ADEN
adjacency_rule
{
	name = "GULF_OF_ADEN"

	contested =
	{
		army = yes
		navy = yes
		submarine = yes
		trade = yes
	}
	enemy =
	{
		army = no
		navy = no
		submarine = no
		trade = no
	}
	friend =
	{
		army = yes
		navy = yes
		submarine = yes
		trade = yes
	}
	neutral =
	{
		army = yes
		navy = no
		submarine = yes
		trade = yes
	}
	
	required_provinces = { 5074 }

		
	icon = 5074
	offset = { -28 0 -10 }
}

#Gibraltar Strait
adjacency_rule
{
	name = "GIBRALTAR_STRAIT"

	contested =
	{
		army = no
		navy = no
		submarine = no
		trade = no
	}
	enemy =
	{
		army = no
		navy = no
		submarine = no
		trade = no
	}
	friend =
	{
		army = yes
		navy = yes
		submarine = yes
		trade = yes
	}
	neutral =
	{
		army = yes
		navy = no
		submarine = yes
		trade = yes
	}
	
	required_provinces = { 4135}
	
	icon = 5407	
	offset = { -31.0 0.0 -2.0 }
	is_disabled = {
		OR= {
			AND = {
				OR={tag=ITA tag=GER}
				has_war=no
			}
			AND = {
				tag = USA
				SOV = {has_war = no}
			}
		}
	}
}

#Øresund - (Østersøen <-> Kattegat/Skagerak/Nordsøen)
adjacency_rule
{
	name = "DANISH_BELTS_STRAIT"

	contested =
	{
		army = no
		navy = no
		submarine = yes
		trade = no
	}
	enemy =
	{
		army = no
		navy = no
		submarine = no
		trade = no
	}
	friend =
	{
		army = yes
		navy = yes
		submarine = yes
		trade = yes
	}
	neutral =
	{
		army = yes
		navy = yes
		submarine = yes
		trade = yes
	}
	
	required_provinces = { 6287 3277 3325 3260 394 }
	
	icon = 2455
	offset = { -26 0 -13 }
}

#Panama Canal
adjacency_rule
{
	name = "PANAMA_CANAL"

	contested =
	{
		army = no
		navy = no
		submarine = no
		trade = no
	}
	enemy =
	{
		army = no
		navy = no
		submarine = no
		trade = no
	}
	friend =
	{
		army = yes
		navy = yes
		submarine = yes
		trade = yes
	}
	neutral =
	{
		army = no
		navy = no
		submarine = no
		trade = yes
	}
	
	required_provinces = { 4624 7617 }

	is_disabled = {
		OR = {
			has_global_flag = PANAMA_CANAL_BLOCKED
			has_country_flag = PANAMA_CANAL_BLOCKED_FOR_COUNTRY
		}
		tooltip = disable_canal_tt
	}
		
	icon = 7617
	offset = { -3 0 -2 }
}

#Turkish Straits
adjacency_rule
{
	name = "BOSPHORUS_STRAIT"

	contested =
	{
		army = no
		navy = no
		submarine = no
		trade = no
	}
	enemy =
	{
		army = no
		navy = no
		submarine = no
		trade = no
	}
	friend =
	{
		army = yes
		navy = yes
		submarine = yes
		trade = yes
	}
	neutral =
	{
		army = no
		navy = no
		submarine = no
		trade = yes
	}
	
	required_provinces = { 9833 11829 }
	
	icon = 9833
	offset = { -2 0 -9 }
}

#Kiel Canal
adjacency_rule
{
	name = "KIEL_CANAL"

	contested =
	{
		army = no
		navy = no
		submarine = no
		trade = no
	}
	enemy =
	{
		army = no
		navy = no
		submarine = no
		trade = no
	}
	friend =
	{
		army = yes
		navy = yes
		submarine = yes
		trade = yes
	}
	neutral =
	{
		army = no
		navy = no
		submarine = no
		trade = yes
	}
	
	required_provinces = { 11366 317 3231 }
		
	icon = 11366
	offset = { 5 0 -6 } 
	
}

#Albanian Strait
adjacency_rule
{
    contested =
    {
        army = yes
        navy = no
        submarine = no
        trade = no
    }
    enemy =
    {
        army = yes
        navy = no
        submarine = no
        trade = no
    }
    friend =
    {
        army = yes
        navy = yes
        submarine = yes
        trade = yes
    }
    neutral =
    {
        army = yes
        navy = yes
        submarine = yes
        trade = yes
    }

    required_provinces = { 6979 11767 } 

    icon = 5864
    offset = { 0 0 0  }


    name = "ALBANIAN_STRAIT_PASS"
}

#HURMUZ
adjacency_rule
{
	name = "HURMUZ"

	contested =
	{
		army = yes
		navy = yes
		submarine = yes
		trade = yes
	}
	enemy =
	{
		army = no
		navy = no
		submarine = yes
		trade = no
	}
	friend =
	{
		army = yes
		navy = yes
		submarine = yes
		trade = yes
	}
	neutral =
	{
		army = yes
		navy = no
		submarine = yes
		trade = yes
	}
	
	required_provinces = { 10760 1889 }

		
	icon = 10760
	offset = { 5 0 25 }
}