
state={
	id=106
	name="STATE_106"
	resources={
		chromium=25.000
	}

	history={
		owner = YUG
		buildings = {
			infrastructure = 4
			industrial_complex = 1
			air_base = 2

		}
		victory_points = {
			3882 5 
		}
		add_core_of = YUG
        add_core_of = BUL
	}

	provinces={
		907 974 3833 3865 3882 6886 11832 11856 11857 11868 
	}
	manpower=1374200
	buildings_max_level_factor=1.000
	state_category=rural
}
