state=
{
	id=124
	name="STATE_124"
	manpower = 1
	
	state_category = small_island
	
	history=
	{
		owner = SWE
		add_core_of = SWE
		buildings = {
			infrastructure = 6
			408 = {
				naval_base = 1
			}
		}
	}
	provinces={
		408 6258
	}
}
