
state = {
	id=154
	name="STATE_154"
	manpower = 2735383

	state_category = city

	history = {
		owner = HUN
		buildings = {
			infrastructure = 6
			industrial_complex = 5
			arms_factory = 1
			air_base = 2
		}
		victory_points = {
			11659 1 
		}
		add_core_of = HUN
	}

	provinces={
		679 699 730 3730 6670 6700 6735 9656 9706 11625 11644 11646 11659 
	}
}
