
state={
	id=193
	name="STATE_193" # Chernihiv
	manpower = 1373637
	
	state_category = city

	history={
		victory_points = {
			3568 5
		}
		owner = SOV
		buildings = {
			infrastructure = 4
			air_base = 5
		}
		add_core_of = SOV
	}

	provinces={
		238 546 3480 3542 3568 3584 6458 6508 6532 6589 9437 9506 11425 11489 
	}
}
