
state={
	id=195
	name="STATE_195"
	manpower = 3750158
	
	state_category = metropolis

	history={
		owner = SOV
		victory_points = {
			3151 100.0
			
		}
		victory_points = {
		
			149   50.0
		}
		buildings = {
			infrastructure = 7
			arms_factory = 6
			industrial_complex = 1
			dockyard = 3
			air_base = 20
			3151 ={
				naval_base = 20
				coastal_bunker = 10
			}
		}
		add_core_of = SOV
		1939.1.1 = {
			buildings = {
				arms_factory = 7
			}
		}
	}

	provinces={
		79 149 3151 6174 11068 
	}
}
