state={
id=268
name="STATE_268"
manpower = 85232
state_category = enclave
history={
owner = FRA
add_core_of=SWE
victory_points = {
8124 1
}
buildings = {
infrastructure = 3
air_base = 2
8124 = {
naval_base = 2
}
}
}
provinces={
4985 8124
}
}
