state= {
id=299
name="STATE_299"
manpower=2463
state_category = enclave
history= 	{
owner = ENG
add_core_of=SWE
buildings = {
infrastructure = 2
12960 = {
naval_base = 1
}
}
}
provinces= { 12960 }
}
