
state={
	id=411
	name="STATE_411" # Isfahan
	manpower = 885272
	impassable = yes
	resources={
		oil=0 # was: 12 (moved to Fars)
	}
	state_category = rural
	

	history={
		owner = PER
		buildings = {
			infrastructure = 2
		}
		victory_points = {
			2026 1 
		}
		add_core_of = PER
	}

	provinces={
		1963 2026 4928 4983 5067 8031 8074 10828 12756 4966 12780
	}
}
