state={
id=448
name="STATE_448"
manpower = 469136
state_category = town
history={
owner = ITA
add_core_of=SWE
victory_points = {
1149 10
}
buildings = {
infrastructure = 3
air_base = 6
industrial_complex = 2
1149 = {
naval_base = 5
}
}
}
provinces={
1118 1149 1189 4194 7066 7209 9980 12039
}
}
