
state={
	id=48
	name="STATE_48"
	manpower = 4891500
	resources={
		steel=10
		aluminium=4 # was: 2
	}
	
	
	state_category = large_city

	history={
		owner = BUL
		victory_points = {
			949 15 
		}
		buildings = {
			infrastructure = 5
			industrial_complex = 6
			air_base = 3
		}
		add_core_of = BUL
	}

	provinces={
		793 935 949 965 3908 3971 6857 9771 9818 11754 
	}
}
