state={
id=501
name="STATE_501"
manpower = 1
state_category = city
history={
victory_points = {
10513 20
}
victory_points = {
5112 1
}
}
provinces={
1583 5186 7636 10513 10947 10994 11003 11008 12937 12972 10432 5112 5167 7553
}
}
