state={
id=515
name="STATE_515"
state_category = pastoral
impassable = yes
history={
owner = FRA
add_core_of=SWE
buildings = {
infrastructure = 1
}
}
provinces={
1956 4913 7939 8028 8128 10758 10780 10805 10917
}
manpower=1456356
buildings_max_level_factor=1.000
}
