state={
id=527
name="STATE_527"
manpower = 6774200
state_category = town
resources={
steel=18
tungsten=28
}
history={
owner = JAP
add_core_of=SWE
buildings = {
infrastructure = 3
industrial_complex = 1
}
victory_points = {
4052 1
}
}
provinces={
848 852 898 906 912 959 978 1003 3803 3852 3860 3904 3912 3981 4052 4107 6822 6922 6928 6944 6963 7070 7155 7171 9790 9795 9899 9918 9981 10065 10083 11770 11775 11828 11835 11878 11896 11915 12040
}
}
