state={
	id=583
	name="STATE_583"

	history={
		owner = SOV
		buildings = {
			infrastructure = 5

		}
		add_core_of = SOV
		victory_points = {
			10312 1
		}
	}

	provinces={
		1272 1276 1303 1331 1360 1363 4337 4340 4369 7233 7357 7429 10140 10168 10284 10295 10312 12115 12139 12143 12170 12185 12198 12229 12257 12266 12285 
	}
	manpower=315450
	
	state_category=city
}
