
state={
	id=612
	name="STATE_612" # Chahar
	manpower = 566000
	
	state_category = rural

	history={
		owner = MAN
		add_core_of = MAN
		add_core_of = CHI

		buildings = {
			infrastructure = 1
		}
	}

	provinces={
		1551 1608 1796 1811 1871 4222 4555 7578 7648 10363 10372 12348 12448 12554 
	}
}
