state={
	id=621
	name="STATE_621"

	history={
		owner = CHI
		
		add_core_of = CHI
		
		buildings = {
			infrastructure = 2
			industrial_complex = 1

		}
		1939.1.1 = {
			remove_building = {
				type = industrial_complex
				level = 1

			}
		}

	}

	provinces={
		2087 4525 7048 7158 7631 10424 10629 12331 12403 12609 12880 
	}
	manpower=1583700
	buildings_max_level_factor=1.000
	state_category=pastoral
}
