state=
{
id=625
name="STATE_625"
manpower = 1138724
state_category = rural
history=
{
owner = USA
add_core_of=SWE
buildings = {
infrastructure = 3
}
}
provinces={
1224 1311 1340 4269 4373
}
}
