state=
{
id=626
name="STATE_626"
manpower = 83041
state_category = rural
history=
{
owner = USA
add_core_of=SWE
victory_points = {
4429 3
}
buildings = {
infrastructure = 3
4429 = {
naval_base = 1
}
}
}
provinces={
4429 7419 10145
}
}
