state=
{
id=630
name="STATE_630"
manpower = 100
state_category = tiny_island
resources={
oil = 15
}
history={
owner = USA
add_core_of=SWE
buildings = {
infrastructure = 2
13051 = {
naval_base = 2
}
}
}
provinces={
13051
}
}
