state={
id=632
name="STATE_632"
manpower=150
state_category = tiny_island
resources={
oil = 15
}
history={
owner = USA
add_core_of=SWE
buildings = {
infrastructure = 3
13047 = {
naval_base = 2
}
}
victory_points = {
13047 1
}
}
provinces={
13047
}
}
