state={
id=676
name="STATE_676"
manpower = 1182741
state_category = town
resources={
oil=52
}
history={
owner = ENG
add_core_of=SWE
buildings = {
infrastructure = 3
}
victory_points = {
10106 1
}
}
provinces={
1600 1938 3916 5014 6826 8123 10106 10793 10804 10811 12372
}
}
