state={
id=680
name="STATE_680"
manpower = 324110
state_category = wasteland
history={
owner = FRA
add_core_of=SWE
victory_points = {
3942 1
}
buildings = {
infrastructure = 2
}
}
provinces={
901 1549 1578 1606 1634 2013 3942 6883 7513 10383 10882 12316 12442
}
}
