state={
id=696
name="STATE_696"
manpower=37516
state_category = small_island
history={
owner = ENG
add_core_of=SWE
victory_points = {
13010 1
}
buildings = {
infrastructure = 4
13010 = {
naval_base = 1
}
}
}
provinces={
13010
}
}
