state={
id=698
name="STATE_698"
manpower = 212012
state_category = small_island
history={
owner = ENG
add_core_of=SWE
victory_points = {
1751 3
}
buildings = {
infrastructure = 3
1751 = {
naval_base = 3
}
}
}
provinces={
1751
}
}
