state={
	id=746
	name="STATE_746"
	provinces={
		1959 3427 4960 4986 10451 10854 12706 
	}
	state_category = pastoral
	
	
	history=
	{
		owner = CHI
		
		add_core_of = CHI
		
		
		buildings = {
			infrastructure = 2
		}

		1938.10.25 = {
			controller = JAP
		}
		
		1939.1.1 = {
		}
	}
	manpower=500000
	buildings_max_level_factor=1.000
}
