state={
	id=752
	name="STATE_752"
	provinces={
		1918 7988 8104 12724 12837 4999
	}
	manpower=300000
	buildings_max_level_factor=1.000
	state_category = pastoral
	history={
		owner = CHI

		add_core_of = CHI

		victory_points = {
			4999 1
		}
		buildings = {
			infrastructure = 1
					arms_factory = 1
		}
		1939.1.1 = {
			buildings = {
				industrial_complex = 1
				infrastructure = 2

			}

		}

	}
}
