﻿division_template = {
	name = "Infanterie Division"
	division_names_group = AUS_INF_01

	regiments = {
		infantry = { x = 0 y = 0 }
		infantry = { x = 0 y = 1 }
		infantry = { x = 0 y = 2 }
		infantry = { x = 1 y = 0 }
		infantry = { x = 1 y = 1 }
		infantry = { x = 1 y = 2 }
		infantry = { x = 2 y = 0 }
		infantry = { x = 2 y = 1 }
		infantry = { x = 2 y = 2 }
	}
	support = {
		engineer = { x = 0 y = 0 }   # Pioneer Bn
	}
}

division_template = {
	name = "Alpenjäger Division"
	division_names_group = AUS_MNT_01

	regiments = {
		mountaineers = { x = 0 y = 0 }
		mountaineers = { x = 0 y = 1 }
		mountaineers = { x = 0 y = 2 }
		mountaineers = { x = 1 y = 0 }
		mountaineers = { x = 1 y = 1 }
		mountaineers = { x = 1 y = 2 }
	}
	support = {
		engineer = { x = 0 y = 0 }   # Pioneer Bn
	}
}

division_template = {
	name = "Schnelle Division"  		# Schnelle-Division (cavalry)
	division_names_group = AUS_CAV_01

	regiments = {
		cavalry = { x = 0 y = 0 }
		cavalry = { x = 0 y = 1 }
		cavalry = { x = 1 y = 0 }
		cavalry = { x = 1 y = 1 }
	}
}

### Starting Production ###
instant_effect = {
	add_equipment_production = {
		equipment = {
			type = infantry_equipment_1
			creator = "AUS"
		}
		requested_factories = 1
		progress = 0.54
		efficiency = 100
	}
	add_equipment_production = {
		equipment = {
			type = support_equipment_1
			creator = "AUS"
		}
		requested_factories = 1
		progress = 0.74
		efficiency = 100
	}
}