units = {
	fleet = {
		name = "Japanese ASW Fleet"
		naval_base = 9950
		task_force = {
			name = "Japanese ASW Task Force 1"				
			location = 9950
			ship = { name = "ASW1" definition = destroyer equipment = { ship_hull_light_3 = { amount = 1 owner = JAP version_name = "ASW Class" } } }
			ship = { name = "ASW2" definition = destroyer equipment = { ship_hull_light_3 = { amount = 1 owner = JAP version_name = "ASW Class" } } }
			ship = { name = "ASW3" definition = destroyer equipment = { ship_hull_light_3 = { amount = 1 owner = JAP version_name = "ASW Class" } } }
			ship = { name = "ASW4" definition = destroyer equipment = { ship_hull_light_3 = { amount = 1 owner = JAP version_name = "ASW Class" } } }
			ship = { name = "ASW5" definition = destroyer equipment = { ship_hull_light_3 = { amount = 1 owner = JAP version_name = "ASW Class" } } }
			ship = { name = "ASW6" definition = destroyer equipment = { ship_hull_light_3 = { amount = 1 owner = JAP version_name = "ASW Class" } } }
			ship = { name = "ASW7" definition = destroyer equipment = { ship_hull_light_3 = { amount = 1 owner = JAP version_name = "ASW Class" } } }
			ship = { name = "ASW8" definition = destroyer equipment = { ship_hull_light_3 = { amount = 1 owner = JAP version_name = "ASW Class" } } }
			ship = { name = "ASW9" definition = destroyer equipment = { ship_hull_light_3 = { amount = 1 owner = JAP version_name = "ASW Class" } } }
			ship = { name = "ASW10" definition = destroyer equipment = { ship_hull_light_3 = { amount = 1 owner = JAP version_name = "ASW Class" } } }
		}		
		task_force = {
			name = "Japanese ASW Task Force 2"				
			location = 9950
			ship = { name = "ASW11" definition = destroyer equipment = { ship_hull_light_3 = { amount = 1 owner = JAP version_name = "ASW Class" } } }
			ship = { name = "ASW12" definition = destroyer equipment = { ship_hull_light_3 = { amount = 1 owner = JAP version_name = "ASW Class" } } }
			ship = { name = "ASW13" definition = destroyer equipment = { ship_hull_light_3 = { amount = 1 owner = JAP version_name = "ASW Class" } } }
			ship = { name = "ASW14" definition = destroyer equipment = { ship_hull_light_3 = { amount = 1 owner = JAP version_name = "ASW Class" } } }
			ship = { name = "ASW15" definition = destroyer equipment = { ship_hull_light_3 = { amount = 1 owner = JAP version_name = "ASW Class" } } }
			ship = { name = "ASW16" definition = destroyer equipment = { ship_hull_light_3 = { amount = 1 owner = JAP version_name = "ASW Class" } } }
			ship = { name = "ASW17" definition = destroyer equipment = { ship_hull_light_3 = { amount = 1 owner = JAP version_name = "ASW Class" } } }
			ship = { name = "ASW18" definition = destroyer equipment = { ship_hull_light_3 = { amount = 1 owner = JAP version_name = "ASW Class" } } }
			ship = { name = "ASW19" definition = destroyer equipment = { ship_hull_light_3 = { amount = 1 owner = JAP version_name = "ASW Class" } } }
			ship = { name = "ASW20" definition = destroyer equipment = { ship_hull_light_3 = { amount = 1 owner = JAP version_name = "ASW Class" } } }

		}		
	}
}					
					
